<?xml version="1.0" encoding="UTF-8" standalone="no"?>
<!DOCTYPE svg PUBLIC "-//W3C//DTD SVG 1.1//EN"
 "http://www.w3.org/Graphics/SVG/1.1/DTD/svg11.dtd">
<!-- Generated by graphviz version 2.38.0 (20140413.2041)
 -->
<!-- Title: controllers_diagram Pages: 1 -->
<svg width="505pt" height="407pt"
 viewBox="0.00 0.00 504.89 407.00" xmlns="http://www.w3.org/2000/svg" xmlns:xlink="http://www.w3.org/1999/xlink">
<g id="graph0" class="graph" transform="scale(1 1) rotate(0) translate(179.944 227)">
<title>controllers_diagram</title>
<polygon fill="none" stroke="none" points="-179.944,180 -179.944,-227 324.944,-227 324.944,180 -179.944,180"/>
<!-- _diagram_info -->
<g id="node1" class="node"><title>_diagram_info</title>
<text text-anchor="start" x="-102" y="-19.6" font-family="Times,serif" font-size="13.00">Controllers diagram</text>
<text text-anchor="start" x="-102" y="-5.6" font-family="Times,serif" font-size="13.00">Date: Mar 10 2018 &#45; 10:45</text>
<text text-anchor="start" x="-102" y="8.4" font-family="Times,serif" font-size="13.00">Migration version: 20171030142634</text>
<text text-anchor="start" x="-102" y="22.4" font-family="Times,serif" font-size="13.00">Generated by RailRoady 1.5.2</text>
<text text-anchor="start" x="-102" y="36.4" font-family="Times,serif" font-size="13.00">http://railroady.prestonlee.com</text>
</g>
<!-- Overrides::SessionsController -->
<g id="node2" class="node"><title>Overrides::SessionsController</title>
<ellipse fill="none" stroke="black" cx="171" cy="-73" rx="116.18" ry="18"/>
<text text-anchor="middle" x="171" y="-69.3" font-family="Times,serif" font-size="14.00">Overrides::SessionsController</text>
</g>
<!-- RankingController -->
<g id="node3" class="node"><title>RankingController</title>
<ellipse fill="none" stroke="black" cx="-44" cy="-73" rx="76.8869" ry="18"/>
<text text-anchor="middle" x="-44" y="-69.3" font-family="Times,serif" font-size="14.00">RankingController</text>
</g>
<!-- SourcesController -->
<g id="node4" class="node"><title>SourcesController</title>
<ellipse fill="none" stroke="black" cx="75" cy="158" rx="74.9875" ry="18"/>
<text text-anchor="middle" x="75" y="161.7" font-family="Times,serif" font-size="14.00">SourcesController</text>
</g>
<!-- ActivityTypesController -->
<g id="node5" class="node"><title>ActivityTypesController</title>
<ellipse fill="none" stroke="black" cx="97" cy="92" rx="96.6831" ry="18"/>
<text text-anchor="middle" x="97" y="95.7" font-family="Times,serif" font-size="14.00">ActivityTypesController</text>
</g>
<!-- UsersController -->
<g id="node6" class="node"><title>UsersController</title>
<ellipse fill="none" stroke="black" cx="-109" cy="158" rx="66.8882" ry="18"/>
<text text-anchor="middle" x="-109" y="161.7" font-family="Times,serif" font-size="14.00">UsersController</text>
</g>
<!-- ActivitiesController -->
<g id="node7" class="node"><title>ActivitiesController</title>
<ellipse fill="none" stroke="black" cx="15" cy="-139" rx="81.4863" ry="18"/>
<text text-anchor="middle" x="15" y="-135.3" font-family="Times,serif" font-size="14.00">ActivitiesController</text>
</g>
<!-- RulesController -->
<g id="node8" class="node"><title>RulesController</title>
<ellipse fill="none" stroke="black" cx="254" cy="-205" rx="66.8882" ry="18"/>
<text text-anchor="middle" x="254" y="-201.3" font-family="Times,serif" font-size="14.00">RulesController</text>
</g>
<!-- ApplicationController -->
<g id="node9" class="node"><title>ApplicationController</title>
<ellipse fill="none" stroke="black" cx="209" cy="-139" rx="88.2844" ry="18"/>
<text text-anchor="middle" x="209" y="-135.3" font-family="Times,serif" font-size="14.00">ApplicationController</text>
</g>
<!-- BadgesController -->
<g id="node10" class="node"><title>BadgesController</title>
<ellipse fill="none" stroke="black" cx="-92" cy="92" rx="72.5877" ry="18"/>
<text text-anchor="middle" x="-92" y="95.7" font-family="Times,serif" font-size="14.00">BadgesController</text>
</g>
<!-- LevelsController -->
<g id="node11" class="node"><title>LevelsController</title>
<ellipse fill="none" stroke="black" cx="246" cy="158" rx="70.3881" ry="18"/>
<text text-anchor="middle" x="246" y="161.7" font-family="Times,serif" font-size="14.00">LevelsController</text>
</g>
<!-- CategoriesController -->
<g id="node12" class="node"><title>CategoriesController</title>
<ellipse fill="none" stroke="black" cx="216" cy="26" rx="84.485" ry="18"/>
<text text-anchor="middle" x="216" y="29.7" font-family="Times,serif" font-size="14.00">CategoriesController</text>
</g>
</g>
</svg>
